%YAML 1.1
%TAG !u! tag:unity3d.com,2011:
--- !u!114 &11400000
MonoBehaviour:
  m_ObjectHideFlags: 0
  m_CorrespondingSourceObject: {fileID: 0}
  m_PrefabInstance: {fileID: 0}
  m_PrefabAsset: {fileID: 0}
  m_GameObject: {fileID: 0}
  m_Enabled: 1
  m_EditorHideFlags: 0
  m_Script: {fileID: 11500000, guid: 9db153a0d1955ce46b9dcc14d9181e24, type: 3}
  m_Name: 2LayerTunnel
  m_EditorClassIdentifier: 
  PredecessorShape: {fileID: 11400000, guid: 04b0db23a83e598418e1ff255943e8fa, type: 2}
  operations:
  - {fileID: 11400000, guid: 3b74f0d8e87bc274bbb4ebd545e8f4ad, type: 2}
  - {fileID: 11400000, guid: c4a4e97ee2e16ae4b87045cff15f2412, type: 2}
  - {fileID: 11400000, guid: 5f1b596da508f1d4f87a79dd329b1059, type: 2}
  - {fileID: 11400000, guid: 5f1b596da508f1d4f87a79dd329b1059, type: 2}
  - {fileID: 11400000, guid: 5f1b596da508f1d4f87a79dd329b1059, type: 2}
  - {fileID: 11400000, guid: 5f1b596da508f1d4f87a79dd329b1059, type: 2}
  - {fileID: 11400000, guid: fb6dca974d5fe474e9c3f61654d7be71, type: 2}
  - {fileID: 11400000, guid: 305374b8d3d2f7a4694758d5494d1460, type: 2}
  - {fileID: 11400000, guid: 305374b8d3d2f7a4694758d5494d1460, type: 2}
  - {fileID: 11400000, guid: 305374b8d3d2f7a4694758d5494d1460, type: 2}
  - {fileID: 11400000, guid: fb6dca974d5fe474e9c3f61654d7be71, type: 2}
  - {fileID: 11400000, guid: ffdf2638f6c1981428656689033d7531, type: 2}
  - {fileID: 11400000, guid: ffdf2638f6c1981428656689033d7531, type: 2}
  - {fileID: 11400000, guid: ffdf2638f6c1981428656689033d7531, type: 2}
  Conditions: 
  ConditionValues: 
  Operator: 0
