%YAML 1.1
%TAG !u! tag:unity3d.com,2011:
--- !u!114 &11400000
MonoBehaviour:
  m_ObjectHideFlags: 0
  m_CorrespondingSourceObject: {fileID: 0}
  m_PrefabInstance: {fileID: 0}
  m_PrefabAsset: {fileID: 0}
  m_GameObject: {fileID: 0}
  m_Enabled: 1
  m_EditorHideFlags: 0
  m_Script: {fileID: 11500000, guid: 9db153a0d1955ce46b9dcc14d9181e24, type: 3}
  m_Name: BlockTunnel
  m_EditorClassIdentifier: 
  PredecessorShape: {fileID: 11400000, guid: 04b0db23a83e598418e1ff255943e8fa, type: 2}
  operations:
  - {fileID: 11400000, guid: 8334b95c9e38cc04ab4c5313db84fcb3, type: 2}
  Conditions: 
  ConditionValues: 
  Operator: 0
