%YAML 1.1
%TAG !u! tag:unity3d.com,2011:
--- !u!1045 &1
EditorBuildSettings:
  m_ObjectHideFlags: 0
  serializedVersion: 2
  m_Scenes:
  - enabled: 1
    path: Assets/Scenes/MainMenu.unity
    guid: cf7c677bbb7aac345a7c35e4f1b92a36
  - enabled: 1
    path: Assets/Scenes/Lobby.unity
    guid: 76fc2d603afcf2e418dfea6e377cc03e
  - enabled: 1
    path: Assets/Scenes/SceneAleatoireTunnel.unity
    guid: a8a3dd8dda0cb3a4fa5adcc50751bc5f
  - enabled: 1
    path: Assets/Scenes/LevelBoss.unity
    guid: 54d5e27344207b84baad9ece08047c6e
  m_configObjects: {}
