%YAML 1.1
%TAG !u! tag:unity3d.com,2011:
--- !u!114 &11400000
MonoBehaviour:
  m_ObjectHideFlags: 0
  m_CorrespondingSourceObject: {fileID: 0}
  m_PrefabInstance: {fileID: 0}
  m_PrefabAsset: {fileID: 0}
  m_GameObject: {fileID: 0}
  m_Enabled: 1
  m_EditorHideFlags: 0
  m_Script: {fileID: 11500000, guid: 5ff8b9a5c07751346a93413ac2b019e1, type: 3}
  m_Name: Shape StraightTunnel
  m_EditorClassIdentifier: 
  isTwoLayer: 0
  Position: {x: 0, y: 0, z: 0}
  Symbol: 4
  ShapeObject: {fileID: 3915936343329602546, guid: 13e5c7eaa77eb4048ba1b5ea30e49b8f, type: 3}
