%YAML 1.1
%TAG !u! tag:unity3d.com,2011:
--- !u!114 &11400000
MonoBehaviour:
  m_ObjectHideFlags: 0
  m_CorrespondingSourceObject: {fileID: 0}
  m_PrefabInstance: {fileID: 0}
  m_PrefabAsset: {fileID: 0}
  m_GameObject: {fileID: 0}
  m_Enabled: 1
  m_EditorHideFlags: 0
  m_Script: {fileID: 11500000, guid: 49b189c82522f1348acaa8b2100f25f6, type: 3}
  m_Name: Place Zombie2
  m_EditorClassIdentifier: 
  predecessor: {fileID: 0}
  ShapeToPlace: {fileID: 11400000, guid: cf6d790565f229f4baceea96e723b741, type: 2}
